Book Title,Author,Edition,Product Type,Copyright Year,Copyright Holder,Print ISBN,Electronic ISBN,Language,Language Collection,eBook Package,English Package Name,German Package Name,Series Print ISSN,Series Electronic ISSN,Series Title,Volume Number,DOI URL,OpenURL,Subject Classification,Publisher,Imprint
Handbook of LGBT Elders,"Debra A. Harley, Pamela B. Teaster",1st ed. 2016,Graduate/advanced undergraduate textbook,2016,Springer International Publishing Switzerland,978-3-319-03622-9,978-3-319-03623-6,EN,English/International,41176,Social Sciences,,,,,,http://doi.org/10.1007/978-3-319-03623-6,http://link.springer.com/openurl?genre=book&isbn=978-3-319-03623-6,Social Sciences; Social Work; Public Health; Psychotherapy and Counseling; Social Policy,Springer International Publishing,Springer
Disability and Vocational Rehabilitation in Rural Settings,"Debra A. Harley, Noel A. Ysasi, Malachy L. Bishop, Allison R. Fleming",1st ed. 2018,Graduate/advanced undergraduate textbook,2018,Springer International Publishing AG,978-3-319-64785-2,978-3-319-64786-9,EN,English/International,41176,Social Sciences,,,,,,http://doi.org/10.1007/978-3-319-64786-9,http://link.springer.com/openurl?genre=book&isbn=978-3-319-64786-9,Social Sciences; Social Work; Community and Environmental Psychology; Rehabilitation,Springer International Publishing,Springer
Political Social Work,"Shannon R. Lane, Suzanne Pritzker",1st ed. 2018,Graduate/advanced undergraduate textbook,2018,Springer International Publishing AG,978-3-319-68587-8,978-3-319-68588-5,EN,English/International,41176,Social Sciences,,,,,,http://doi.org/10.1007/978-3-319-68588-5,http://link.springer.com/openurl?genre=book&isbn=978-3-319-68588-5,Social Sciences; Social Work; Social Policy; Public Policy,Springer International Publishing,Springer
"Concepts, Methods and Practical Applications in Applied Demography",Richard K. Thomas,1st ed. 2018,Graduate/advanced undergraduate textbook,2018,Springer International Publishing AG,978-3-319-65438-6,978-3-319-65439-3,EN,English/International,41176,Social Sciences,,,,,,http://doi.org/10.1007/978-3-319-65439-3,http://link.springer.com/openurl?genre=book&isbn=978-3-319-65439-3,"Social Sciences; Demography; Statistics for Social Science, Behavorial Science, Education, Public Policy, and Law; Methodology of the Social Sciences",Springer International Publishing,Springer
An Introduction to Zooarchaeology,Diane Gifford-Gonzalez,1st ed. 2018,Graduate/advanced undergraduate textbook,2018,"Springer International Publishing AG, part of Springer Nature",978-3-319-65680-9,978-3-319-65682-3,EN,English/International,41176,Social Sciences,,,,,,http://doi.org/10.1007/978-3-319-65682-3,http://link.springer.com/openurl?genre=book&isbn=978-3-319-65682-3,Social Sciences; Archaeology,Springer International Publishing,Springer
Quantitative Methods for the Social Sciences,Daniel Stockemer,1st ed. 2019,Undergraduate textbook,2019,Springer International Publishing AG,978-3-319-99117-7,978-3-319-99118-4,EN,English/International,41176,Social Sciences,,,,,,http://doi.org/10.1007/978-3-319-99118-4,http://link.springer.com/openurl?genre=book&isbn=978-3-319-99118-4,"Social Sciences; Methodology of the Social Sciences; Statistics for Social Science, Behavorial Science, Education, Public Policy, and Law; Statistics and Computing/Statistics Programs",Springer International Publishing,Springer
Social Justice Theory and Practice for Social Work,"Lynelle Watts, David Hodgson",1st ed. 2019,Graduate/advanced undergraduate textbook,2019,Springer Nature Singapore Pte Ltd.,978-981-13-3620-1,978-981-13-3621-8,EN,English/International,41176,Social Sciences,,,,,,http://doi.org/10.1007/978-981-13-3621-8,http://link.springer.com/openurl?genre=book&isbn=978-981-13-3621-8,"Social Sciences; Social Work; Social Justice, Equality and Human Rights; Political Philosophy; Children, Youth and Family Policy",Springer Singapore,Springer
Analyzing Qualitative Data with MAXQDA,"Udo Kuckartz, Stefan Rädiker",1st ed. 2019,Graduate/advanced undergraduate textbook,2019,Springer Nature Switzerland AG,978-3-030-15670-1,978-3-030-15671-8,EN,English/International,41176,Social Sciences,,,,,,http://doi.org/10.1007/978-3-030-15671-8,http://link.springer.com/openurl?genre=book&isbn=978-3-030-15671-8,"Social Sciences; Methodology of the Social Sciences; Statistics for Social Science, Behavorial Science, Education, Public Policy, and Law; Research Methods in Education; Statistics and Computing/Statistics Programs; Statistics for Life Sciences, Medicine, Health Sciences; Statistics for Business/Economics/Mathematical Finance/Insurance",Springer International Publishing,Springer
Handbook of Evolutionary Research in Archaeology,Anna Marie Prentiss,1st ed. 2019,Graduate/advanced undergraduate textbook,2019,Springer Nature Switzerland AG,978-3-030-11116-8,978-3-030-11117-5,EN,English/International,41176,Social Sciences,,,,,,http://doi.org/10.1007/978-3-030-11117-5,http://link.springer.com/openurl?genre=book&isbn=978-3-030-11117-5,Social Sciences; Archaeology,Springer International Publishing,Springer